^C:\GIT\FRESH-BYTE-AGENT-RUNNER\GETOPT.C
/c /Zi /nologo /W3 /WX- /diagnostics:column /sdl /O2 /Oi /GL /D NDEBUG /D _CONSOLE /D _UNICODE /D UNICODE /Gm- /EHsc /MD /GS /Gy /fp:precise /permissive- /Zc:wchar_t /Zc:forScope /Zc:inline /Fo"X64\RELEASE\\" /Fd"X64\RELEASE\VC142.PDB" /Gd /TC /FC C:\GIT\FRESH-BYTE-AGENT-RUNNER\GETOPT.C
^C:\GIT\FRESH-BYTE-AGENT-RUNNER\GETOPT_LONG.C
/c /Zi /nologo /W3 /WX- /diagnostics:column /sdl /O2 /Oi /GL /D NDEBUG /D _CONSOLE /D _UNICODE /D UNICODE /Gm- /EHsc /MD /GS /Gy /fp:precise /permissive- /Zc:wchar_t /Zc:forScope /Zc:inline /Fo"X64\RELEASE\\" /Fd"X64\RELEASE\VC142.PDB" /Gd /TC /FC C:\GIT\FRESH-BYTE-AGENT-RUNNER\GETOPT_LONG.C
